{
    "name": "Papo legal 3", 
    "description": "Comida simples a quilo com churrasco.", 
    "id": "1", 
    "images": [
        "app/img/places/papo-legal.0.jpg", 
        "app/img/places/dell-streak-7.1.jpg", 
        "app/img/places/dell-streak-7.2.jpg", 
        "app/img/places/dell-streak-7.3.jpg", 
        "app/img/places/dell-streak-7.4.jpg"
    ],
    "distance": "0.2 km",
    "rating": 3
}
